Mixed effects models
…
  # get data in environment
  assign("dat", dat, envir = .GlobalEnv)
  
  return(dat)
  
}

Let’s run the function we have created.

sim_lmer()

## # A tibble: 20,000 × 17
##    sub_id stim_id stim_version sub_i sub_version_slope sub_cond    stim_i
##     <int>   <int> <chr>        <dbl>             <dbl> <chr>        <dbl>
##  1      1       1 impersonal   -35.1              11.0 permissible  -73.3
##  2      1       1 personal     -35.1              11.0 permissible  -73.3
##  3      1       2 impersonal   -35.1              11.0 permissible   35.7
##  4      1       2 personal     -35.1              11.0 permissible   35.7
##  5      1       3 impersonal   -35.1              11.0 permissible   38.3
##  6      1       3 personal     -35.1              11.0 permissible   38.3
##  7      1       4 impersonal   -35.1              11.0 permissible   62.8
##  8      1       4 personal     -35.1              11.0 permissible   62.8
##  9      1       5 impersonal   -35.1              11.0 permissible   87.2
## 10      1       5 personal     -35.1              11.0 permissible   87.2
## # ℹ 19,990 more rows
## # ℹ 10 more variables: stim_version_slope <dbl>, stim_cond_slope <dbl>,
## #   stim_cond_version_slope <dbl>, sub_cond.e <dbl>, stim_version.e <dbl>,
## #   cond_eff <dbl>, version_eff <dbl>, cond_version_eff <dbl>, err <dbl>,
## #   dv <dbl>
…
